{
  "type": "service_account",
  "project_id": "alltheforms-943f1",
  "private_key_id": "e19f52b2ebddf9643af491c41fb1403d3f5ac8bc",
  "private_key": "-----BEGIN PRIVATE KEY-----\nMIIEvAIBADANBgkqhkiG9w0BAQEFAASCBKYwggSiAgEAAoIBAQCdjC1e3G1q7TL0\nNZ5P+1Vf7dZapEVOeKqmRtnoqxnyDbO+jYgCMduX+mkwYoDOKqoCNoK7h76k7fvW\n8xWoHpm5xooqeODp4msE1qgtgv8XTklDJQ0QE/GI2hY7pOCTQ36MdgQkJ3Oa6r/K\nmTM4JP2rkCqk2OFxskkGDWPmDvf3M6dQNBZxq+sU9JZ/woENGd4VS7ZvKppoptVV\nSdeyhwTaxxICQfdkYdJ/zzngyCNQYL0WZWSGYfvNkyxtDR1hfxMNSKHk0Eyszl/f\ngRSDO7mqr6Zns11GRvK3HQYfJAMqrDAc7Go1aUVWFCb7QC2BDYWT7DHrJUW4cmls\nc7Rz0MLBAgMBAAECggEAQHt4sGxIzmxiIAj4EGVepqI6SyQUB8+kjOTP2IZ7WpJY\nIKRd6AQPDE+eEQMoE/nrVneIH4gqM+gB3RLmKMbJhXto3oRWDfQxeCwBbotArAHL\nQ5OdGpkHEUutsODFWBDWcVf2TvPkwaHWOO5mQ9MEDl21zn3EHBxr/fGqEyXKQN87\nQA+NSkrxdNFzp/Slqj/YoVR5GGzLFYnjlwXZ24Z+qtkXfI3tn5lnZ3kPt6ycZaR7\ny0K12GTMm+qcDeF6/F279MIfOOGPRO8Ggy+8/TIbkU+qmEnQjgnbLok6Jv+GlZDR\nFVwFIGK1uyiIih+rndud+onAvW+kTIINxt1Px6Ht9wKBgQDTJJO3m/YwMI3SrnAJ\n8qsZOAG5RCxLtsMp7u/h5USCN4knqVoSJ/tHvT/dbFbimSL05lBSopFVWl5hkTdB\n93iiTtO9TZPk2t1MvfnFDBU9CyHoxtgrekRm02+89AtzqSZC1Ty7iYSEAd1kYUEM\nLDsphByc9ztI7MeCaQoplu7G8wKBgQC/BLaUmM7nhsDJp5V58/1odrhV+/KsX9TW\nThxMYVRf5QtbvJLDLuLcRn6qx3YdXh32nJTtl/RHBgldAkXiYfVfdci4wXg8EPdz\nVzhQamnCUDkI9pvYA6zoPdzROAV7SVDC5hbzryAwQ22xWrHjrXtm9tKjVC3sXA7m\nfTvx+a8kewKBgFy9qixx0rbj/MdXW1rjPgf7s7YenZ48DokyrCb6vxa7MgE7v5ZN\n/W9LTuwBFEC/pr0PFKTXRyLIaMBOOok9G72fBh4WHyncgGue3kCQyBth8mj+PiEK\nuVS49lF2mDkbSPT+GIj/JDefYhEfLqUcIHhh0PeZGG81oYREgvQ1mXfFAoGAWEAP\nMlvey2ygSQoZrvwgiVDAHUmHdkfYByKTRF57IsqpErrueyqAORCAmNoKIctHwJXa\n4GIhw2ZwkP3p14s2V+IM1/7aU7Xq/OjA5bYkIlf54cA9g/E+wxVBnY9qSOk4XLL8\ny5yPHH0qgpPKN8wAhTNnYXoUtWxanfYh6ctXNV0CgYA5DvDMzQiKpb++aAYBG73e\nJiCw5op+Y4O5Gk0w1NAJ7gPGYrtBiUq02CN6W7wNKz0O/A7XG7AXFWXrNI0FB8fQ\n/cf193EV8SawPcdbzXcZcUlLxRPj7lffnLkTNhqSov+UNC+2pbDbs6wIezb2q1gS\n3xw889xXBp9BQdCAFE6xgg==\n-----END PRIVATE KEY-----\n",
  "client_email": "nitiengine@alltheforms-943f1.iam.gserviceaccount.com",
  "client_id": "101855110067141346487",
  "auth_uri": "https://accounts.google.com/o/oauth2/auth",
  "token_uri": "https://oauth2.googleapis.com/token",
  "auth_provider_x509_cert_url": "https://www.googleapis.com/oauth2/v1/certs",
  "client_x509_cert_url": "https://www.googleapis.com/robot/v1/metadata/x509/nitiengine%40alltheforms-943f1.iam.gserviceaccount.com",
  "universe_domain": "googleapis.com"
}
